module gitlab.com/incubateurpe/ipam-operator

go 1.16

require (
	github.com/ghodss/yaml v1.0.0
	github.com/go-logr/logr v0.4.0
	github.com/onsi/ginkgo v1.16.4
	github.com/onsi/gomega v1.13.0
	github.com/stretchr/testify v1.7.0
	k8s.io/api v0.21.2
	k8s.io/apimachinery v0.21.2
	k8s.io/client-go v0.21.2
	sigs.k8s.io/cluster-api v0.3.22
	sigs.k8s.io/cluster-api-provider-vsphere v0.7.10
	sigs.k8s.io/controller-runtime v0.9.2
)
